<svg xmlns="http://www.w3.org/2000/svg" width="61" height="61" viewBox="0 0 61 61">
    <g fill="#39D0FD" fill-rule="nonzero">
        <path d="M56.842 37.42c1.202-.404 2.03-1.515 2.03-2.88v-2.194c1.201-.403 2.03-1.514 2.03-2.88v-2.03c0-1.725-1.32-3.044-3.045-3.044h-.01c-.123-5.631-1.383-11.799-8.108-18.666V3.084c0-.507-.304-.913-.811-1.015L40.81.04c-.304 0-.609 0-.812.204-.304.203-.405.507-.405.812v3.044H21.328V1.055c0-.305 0-.61-.304-.812-.305-.203-.609-.305-.913-.203l-8.118 2.03c-.507.1-.812.507-.812 1.014v2.642C4.457 12.593 3.196 18.76 3.075 24.392h-.011c-1.725 0-3.044 1.32-3.044 3.044v2.03c0 1.366.828 2.477 2.03 2.88v2.193c0 1.366.827 2.477 2.029 2.88v17.414H1.035c-.61 0-1.015.406-1.015 1.014v4.06c0 .608.406 1.014 1.015 1.014h58.851c.61 0 1.015-.406 1.015-1.015v-4.059c0-.608-.406-1.014-1.015-1.014h-3.044V37.42zm0-2.88c0 .608-.406 1.014-1.014 1.014H5.093c-.608 0-1.014-.406-1.014-1.015v-2.03h52.763v2.03zm-1.014-10.148h-6.089V8.766c4.77 5.378 5.987 10.248 6.089 15.626zM47.71 3.896v20.496h-6.088v-2.03h2.03c.608 0 1.014-.405 1.014-1.014s-.406-1.015-1.015-1.015h-2.029v-2.029h2.03c.608 0 1.014-.406 1.014-1.015 0-.608-.406-1.014-1.015-1.014h-2.029v-2.03h2.03c.608 0 1.014-.405 1.014-1.014 0-.61-.406-1.015-1.015-1.015h-2.029v-2.03h2.03c.608 0 1.014-.405 1.014-1.014s-.406-1.015-1.015-1.015h-2.029v-2.03h2.03c.608 0 1.014-.405 1.014-1.014S44.26 4.1 43.651 4.1h-2.029V2.374l6.088 1.522zm-8.117 20.496H21.328V6.128h18.265v18.264zM13.21 3.896l6.088-1.522v1.725h-2.03c-.608 0-1.014.405-1.014 1.014s.406 1.015 1.015 1.015h2.029v2.03h-2.03c-.608 0-1.014.405-1.014 1.014s.406 1.015 1.015 1.015h2.029v2.029h-2.03c-.608 0-1.014.406-1.014 1.015 0 .608.406 1.014 1.015 1.014h2.029v2.03h-2.03c-.608 0-1.014.405-1.014 1.014 0 .61.406 1.015 1.015 1.015h2.029v2.03h-2.03c-.608 0-1.014.405-1.014 1.014s.406 1.015 1.015 1.015h2.029v2.029H13.21V3.896zm-2.03 4.87v15.626H5.093c.102-5.378 1.42-10.248 6.088-15.626zM2.05 27.436c0-.608.406-1.014 1.015-1.014H57.857c.609 0 1.015.406 1.015 1.014v2.03c0 .609-.406 1.014-1.015 1.014H3.064c-.609 0-1.015-.405-1.015-1.014v-2.03zm56.823 31.456H2.049v-2.03h56.823v2.03zm-16.235-4.06H31.475v-12.7l11.162 4.279v8.422zm-13.191 0H18.284v-8.421l11.162-4.279v12.7zm15.119 0v-9.131c0-.406-.203-.812-.61-.914l-13.19-5.073a.867.867 0 0 0-.71 0l-13.191 5.073c-.305.102-.609.508-.609.914v9.132H6.108v-2.03h4.059c.608 0 1.014-.405 1.014-1.014s-.406-1.015-1.014-1.015H6.108v-2.03h2.03c.608 0 1.014-.405 1.014-1.014s-.406-1.015-1.015-1.015H6.108v-9.132h48.705v9.132h-2.03c-.608 0-1.014.406-1.014 1.015 0 .609.406 1.015 1.014 1.015h2.03v2.03h-4.059c-.609 0-1.015.405-1.015 1.014s.406 1.014 1.015 1.014h4.059v2.03H44.565z"/>
        <path d="M30.46 23.378c4.465 0 8.118-3.653 8.118-8.118s-3.653-8.118-8.118-8.118c-4.464 0-8.117 3.653-8.117 8.118s3.653 8.118 8.117 8.118zm0-14.206c3.349 0 6.089 2.74 6.089 6.088 0 3.349-2.74 6.088-6.089 6.088-3.348 0-6.088-2.74-6.088-6.088s2.74-6.088 6.088-6.088z"/>
        <path d="M27.416 16.275c.61 0 1.015-.406 1.015-1.015 0-1.116.913-2.03 2.03-2.03.608 0 1.014-.405 1.014-1.014s-.406-1.015-1.015-1.015a4.07 4.07 0 0 0-4.058 4.06c0 .608.406 1.014 1.014 1.014zM25.387 50.774h2.03c.608 0 1.014-.406 1.014-1.015 0-.608-.406-1.014-1.015-1.014h-2.029c-.609 0-1.015.406-1.015 1.014 0 .61.406 1.015 1.015 1.015zM33.504 50.774h2.03c.609 0 1.015-.406 1.015-1.015 0-.608-.406-1.014-1.015-1.014h-2.03c-.608 0-1.014.406-1.014 1.014 0 .61.406 1.015 1.014 1.015z"/>
    </g>
</svg>
